# of terms in each group
log(tf) < 5: 29312
5 <= log(tf) < 10: 28369
10 <= log(tf) < 15: 2204
15 <= log(tf): 46
----------Top 20 rIDF in log(tf) < 5-----------
mellifera,	 tf: 31, df1: 11, df2: 2, idf: 12.921128, rIDF: 1.414789, idf2: 14.921128, rIDF2: 3.414789, burstiness: 2.666667, adapt2: 0.250000, adapt3: 1.000000
finke,	 tf: 31, df1: 11, df2: 4, idf: 12.921128, rIDF: 1.414789, idf2: 14.184162, rIDF2: 2.677824, burstiness: 2.666667, adapt2: 0.416667, adapt3: 0.800000
exclaves,	 tf: 31, df1: 11, df2: 5, idf: 12.921128, rIDF: 1.414789, idf2: 13.921128, rIDF2: 2.414789, burstiness: 2.666667, adapt2: 0.500000, adapt3: 0.333333
abstinence,	 tf: 31, df1: 11, df2: 5, idf: 12.921128, rIDF: 1.414789, idf2: 13.921128, rIDF2: 2.414789, burstiness: 2.666667, adapt2: 0.500000, adapt3: 0.833333
hallé,	 tf: 31, df1: 11, df2: 5, idf: 12.921128, rIDF: 1.414789, idf2: 13.921128, rIDF2: 2.414789, burstiness: 2.666667, adapt2: 0.500000, adapt3: 0.666667
tritium,	 tf: 31, df1: 11, df2: 5, idf: 12.921128, rIDF: 1.414789, idf2: 13.921128, rIDF2: 2.414789, burstiness: 2.666667, adapt2: 0.500000, adapt3: 0.500000
pretorius,	 tf: 31, df1: 11, df2: 3, idf: 12.921128, rIDF: 1.414789, idf2: 14.506091, rIDF2: 2.999752, burstiness: 2.666667, adapt2: 0.333333, adapt3: 0.750000
estar,	 tf: 31, df1: 11, df2: 5, idf: 12.921128, rIDF: 1.414789, idf2: 13.921128, rIDF2: 2.414789, burstiness: 2.666667, adapt2: 0.500000, adapt3: 0.500000
subversion,	 tf: 31, df1: 11, df2: 4, idf: 12.921128, rIDF: 1.414789, idf2: 14.184162, rIDF2: 2.677824, burstiness: 2.666667, adapt2: 0.416667, adapt3: 0.800000
ethiopians,	 tf: 30, df1: 11, df2: 3, idf: 12.921128, rIDF: 1.368994, idf2: 14.506091, rIDF2: 2.953956, burstiness: 2.583333, adapt2: 0.333333, adapt3: 1.000000
caching,	 tf: 30, df1: 11, df2: 6, idf: 12.921128, rIDF: 1.368994, idf2: 13.698736, rIDF2: 2.146601, burstiness: 2.583333, adapt2: 0.583333, adapt3: 0.857143
ilford,	 tf: 30, df1: 11, df2: 5, idf: 12.921128, rIDF: 1.368994, idf2: 13.921128, rIDF2: 2.368994, burstiness: 2.583333, adapt2: 0.500000, adapt3: 0.333333
l9,	 tf: 30, df1: 11, df2: 7, idf: 12.921128, rIDF: 1.368994, idf2: 13.506091, rIDF2: 1.953956, burstiness: 2.583333, adapt2: 0.666667, adapt3: 0.625000
valuation,	 tf: 30, df1: 11, df2: 4, idf: 12.921128, rIDF: 1.368994, idf2: 14.184162, rIDF2: 2.632028, burstiness: 2.583333, adapt2: 0.416667, adapt3: 0.600000
pygmies,	 tf: 30, df1: 11, df2: 3, idf: 12.921128, rIDF: 1.368994, idf2: 14.506091, rIDF2: 2.953956, burstiness: 2.583333, adapt2: 0.333333, adapt3: 0.500000
meringue,	 tf: 30, df1: 11, df2: 5, idf: 12.921128, rIDF: 1.368994, idf2: 13.921128, rIDF2: 2.368994, burstiness: 2.583333, adapt2: 0.500000, adapt3: 0.666667
adana,	 tf: 30, df1: 11, df2: 4, idf: 12.921128, rIDF: 1.368994, idf2: 14.184162, rIDF2: 2.632028, burstiness: 2.583333, adapt2: 0.416667, adapt3: 0.800000
megafauna,	 tf: 30, df1: 11, df2: 5, idf: 12.921128, rIDF: 1.368994, idf2: 13.921128, rIDF2: 2.368994, burstiness: 2.583333, adapt2: 0.500000, adapt3: 0.666667
jingo,	 tf: 30, df1: 11, df2: 5, idf: 12.921128, rIDF: 1.368994, idf2: 13.921128, rIDF2: 2.368994, burstiness: 2.583333, adapt2: 0.500000, adapt3: 0.833333
axiom,	 tf: 30, df1: 11, df2: 5, idf: 12.921128, rIDF: 1.368994, idf2: 13.921128, rIDF2: 2.368994, burstiness: 2.583333, adapt2: 0.500000, adapt3: 0.833333
----------Bottom 20 rIDF in log(tf) < 5-----------
yonkers,	 tf: 31, df1: 29, df2: 1, idf: 11.599200, rIDF: 0.092861, idf2: 15.506091, rIDF2: 3.999752, burstiness: 1.066667, adapt2: 0.066667, adapt3: 1.000000
confront,	 tf: 31, df1: 29, df2: 1, idf: 11.599200, rIDF: 0.092861, idf2: 15.506091, rIDF2: 3.999752, burstiness: 1.066667, adapt2: 0.066667, adapt3: 1.000000
agility,	 tf: 31, df1: 29, df2: 1, idf: 11.599200, rIDF: 0.092861, idf2: 15.506091, rIDF2: 3.999752, burstiness: 1.066667, adapt2: 0.066667, adapt3: 1.000000
gentry,	 tf: 31, df1: 29, df2: 1, idf: 11.599200, rIDF: 0.092861, idf2: 15.506091, rIDF2: 3.999752, burstiness: 1.066667, adapt2: 0.066667, adapt3: 1.000000
finely,	 tf: 31, df1: 29, df2: 1, idf: 11.599200, rIDF: 0.092861, idf2: 15.506091, rIDF2: 3.999752, burstiness: 1.066667, adapt2: 0.066667, adapt3: 1.000000
quoting,	 tf: 30, df1: 28, df2: 1, idf: 11.648110, rIDF: 0.095975, idf2: 15.506091, rIDF2: 3.953956, burstiness: 1.068966, adapt2: 0.068966, adapt3: 1.000000
61st,	 tf: 30, df1: 28, df2: 1, idf: 11.648110, rIDF: 0.095975, idf2: 15.506091, rIDF2: 3.953956, burstiness: 1.068966, adapt2: 0.068966, adapt3: 1.000000
gathers,	 tf: 30, df1: 28, df2: 1, idf: 11.648110, rIDF: 0.095975, idf2: 15.506091, rIDF2: 3.953956, burstiness: 1.068966, adapt2: 0.068966, adapt3: 1.000000
anselm,	 tf: 30, df1: 28, df2: 1, idf: 11.648110, rIDF: 0.095975, idf2: 15.506091, rIDF2: 3.953956, burstiness: 1.068966, adapt2: 0.068966, adapt3: 1.000000
ignoring,	 tf: 30, df1: 28, df2: 1, idf: 11.648110, rIDF: 0.095975, idf2: 15.506091, rIDF2: 3.953956, burstiness: 1.068966, adapt2: 0.068966, adapt3: 1.000000
college's,	 tf: 30, df1: 28, df2: 1, idf: 11.648110, rIDF: 0.095975, idf2: 15.506091, rIDF2: 3.953956, burstiness: 1.068966, adapt2: 0.068966, adapt3: 1.000000
ambitions,	 tf: 30, df1: 28, df2: 1, idf: 11.648110, rIDF: 0.095975, idf2: 15.506091, rIDF2: 3.953956, burstiness: 1.068966, adapt2: 0.068966, adapt3: 1.000000
astronautical,	 tf: 30, df1: 28, df2: 1, idf: 11.648110, rIDF: 0.095975, idf2: 15.506091, rIDF2: 3.953956, burstiness: 1.068966, adapt2: 0.068966, adapt3: 1.000000
rigorous,	 tf: 30, df1: 28, df2: 1, idf: 11.648110, rIDF: 0.095975, idf2: 15.506091, rIDF2: 3.953956, burstiness: 1.068966, adapt2: 0.068966, adapt3: 1.000000
distraction,	 tf: 29, df1: 27, df2: 1, idf: 11.698736, rIDF: 0.099303, idf2: 15.506091, rIDF2: 3.906658, burstiness: 1.071429, adapt2: 0.071429, adapt3: 1.000000
debuting,	 tf: 29, df1: 27, df2: 1, idf: 11.698736, rIDF: 0.099303, idf2: 15.506091, rIDF2: 3.906658, burstiness: 1.071429, adapt2: 0.071429, adapt3: 1.000000
disciplinary,	 tf: 29, df1: 27, df2: 1, idf: 11.698736, rIDF: 0.099303, idf2: 15.506091, rIDF2: 3.906658, burstiness: 1.071429, adapt2: 0.071429, adapt3: 1.000000
laramie,	 tf: 29, df1: 27, df2: 1, idf: 11.698736, rIDF: 0.099303, idf2: 15.506091, rIDF2: 3.906658, burstiness: 1.071429, adapt2: 0.071429, adapt3: 1.000000
accumulate,	 tf: 29, df1: 27, df2: 1, idf: 11.698736, rIDF: 0.099303, idf2: 15.506091, rIDF2: 3.906658, burstiness: 1.071429, adapt2: 0.071429, adapt3: 1.000000
catchphrase,	 tf: 29, df1: 27, df2: 1, idf: 11.698736, rIDF: 0.099303, idf2: 15.506091, rIDF2: 3.906658, burstiness: 1.071429, adapt2: 0.071429, adapt3: 1.000000
----------Top 20 rIDF in 5 <= log(tf) < 10-----------
dnpq,	 tf: 309, df1: 11, df2: 9, idf: 12.921128, rIDF: 4.688760, idf2: 13.184162, rIDF2: 4.951794, burstiness: 25.833333, adapt2: 0.833333, adapt3: 0.800000
dnq,	 tf: 984, df1: 50, df2: 46, idf: 10.833665, rIDF: 4.263927, idf2: 10.951502, rIDF2: 4.381764, burstiness: 19.313725, adapt2: 0.921569, adapt3: 0.808511
bío,	 tf: 268, df1: 13, df2: 13, idf: 12.698736, rIDF: 4.262023, idf2: 12.698736, rIDF2: 4.262023, burstiness: 19.214286, adapt2: 1.000000, adapt3: 0.500000
outday,	 tf: 238, df1: 12, df2: 12, idf: 12.805651, rIDF: 4.198575, idf2: 12.805651, rIDF2: 4.198575, burstiness: 18.384615, adapt2: 1.000000, adapt3: 1.000000
xena,	 tf: 453, df1: 29, df2: 17, idf: 11.599200, rIDF: 3.916141, idf2: 12.336166, rIDF2: 4.653106, burstiness: 15.133333, adapt2: 0.600000, adapt3: 0.777778
arriva,	 tf: 184, df1: 12, df2: 8, idf: 12.805651, rIDF: 3.829508, idf2: 13.336166, rIDF2: 4.360023, burstiness: 14.230769, adapt2: 0.692308, adapt3: 0.666667
salvia,	 tf: 179, df1: 12, df2: 5, idf: 12.805651, rIDF: 3.790019, idf2: 13.921128, rIDF2: 4.905496, burstiness: 13.846154, adapt2: 0.461538, adapt3: 0.833333
herbivore,	 tf: 625, df1: 46, df2: 8, idf: 10.951502, rIDF: 3.730581, idf2: 13.336166, rIDF2: 6.115245, burstiness: 13.319149, adapt2: 0.191489, adapt3: 0.888889
dengue,	 tf: 155, df1: 12, df2: 4, idf: 12.805651, rIDF: 3.583754, idf2: 14.184162, rIDF2: 4.962265, burstiness: 12.000000, adapt2: 0.384615, adapt3: 0.400000
antioquia,	 tf: 152, df1: 12, df2: 5, idf: 12.805651, rIDF: 3.555762, idf2: 13.921128, rIDF2: 4.671240, burstiness: 11.769231, adapt2: 0.461538, adapt3: 0.833333
cac,	 tf: 270, df1: 23, df2: 18, idf: 11.921128, rIDF: 3.495087, idf2: 12.258163, rIDF2: 3.832122, burstiness: 11.291667, adapt2: 0.791667, adapt3: 1.000000
prades,	 tf: 145, df1: 12, df2: 7, idf: 12.805651, rIDF: 3.488253, idf2: 13.506091, rIDF2: 4.188693, burstiness: 11.230769, adapt2: 0.615385, adapt3: 0.375000
getty,	 tf: 415, df1: 37, df2: 14, idf: 11.258163, rIDF: 3.449289, idf2: 12.599200, rIDF2: 4.790326, burstiness: 10.947368, adapt2: 0.394737, adapt3: 0.733333
aang,	 tf: 234, df1: 21, df2: 20, idf: 12.046659, rIDF: 3.415264, idf2: 12.113773, rIDF2: 3.482379, burstiness: 10.681818, adapt2: 0.954545, adapt3: 0.857143
mast,	 tf: 652, df1: 60, df2: 15, idf: 10.575353, rIDF: 3.415144, idf2: 12.506091, rIDF2: 5.345881, burstiness: 10.704918, adapt2: 0.262295, adapt3: 0.625000
jasenovac,	 tf: 126, df1: 11, df2: 7, idf: 12.921128, rIDF: 3.402738, idf2: 13.506091, rIDF2: 3.987701, burstiness: 10.583333, adapt2: 0.666667, adapt3: 0.750000
lw,	 tf: 766, df1: 72, df2: 16, idf: 10.316266, rIDF: 3.387318, idf2: 12.418628, rIDF2: 5.489680, burstiness: 10.506849, adapt2: 0.232877, adapt3: 0.941176
gallantry,	 tf: 421, df1: 40, df2: 18, idf: 11.148539, rIDF: 3.360278, idf2: 12.258163, rIDF2: 4.469902, burstiness: 10.292683, adapt2: 0.463415, adapt3: 0.736842
timmy,	 tf: 268, df1: 26, df2: 6, idf: 11.751203, rIDF: 3.314491, idf2: 13.698736, rIDF2: 5.262023, burstiness: 9.962963, adapt2: 0.259259, adapt3: 0.571429
vaud,	 tf: 462, df1: 46, df2: 26, idf: 10.951502, rIDF: 3.296693, idf2: 11.751203, rIDF2: 4.096394, burstiness: 9.851064, adapt2: 0.574468, adapt3: 0.333333
----------Bottom 20 rIDF in 5 <= log(tf) < 10-----------
www.rsssf.com,	 tf: 506, df1: 504, df2: 1, idf: 7.525951, rIDF: 0.001775, idf2: 15.506091, rIDF2: 7.981914, burstiness: 1.003960, adapt2: 0.003960, adapt3: 1.000000
normandie,	 tf: 736, df1: 731, df2: 4, idf: 6.990391, rIDF: 0.004113, idf2: 14.184162, rIDF2: 7.197885, burstiness: 1.006831, adapt2: 0.006831, adapt3: 0.400000
picardie,	 tf: 860, df1: 852, df2: 4, idf: 6.769689, rIDF: 0.006800, idf2: 14.184162, rIDF2: 7.421274, burstiness: 1.009379, adapt2: 0.005862, adapt3: 0.400000
miscellaneous,	 tf: 564, df1: 559, df2: 4, idf: 7.376808, rIDF: 0.008447, idf2: 14.184162, rIDF2: 6.815802, burstiness: 1.008929, adapt2: 0.008929, adapt3: 0.400000
enc,	 tf: 261, df1: 259, df2: 1, idf: 8.483723, rIDF: 0.009025, idf2: 15.506091, rIDF2: 7.031393, burstiness: 1.007692, adapt2: 0.007692, adapt3: 1.000000
basse,	 tf: 756, df1: 748, df2: 7, idf: 6.957269, rIDF: 0.009465, idf2: 13.506091, rIDF2: 6.558287, burstiness: 1.010681, adapt2: 0.010681, adapt3: 0.250000
disestablishments,	 tf: 250, df1: 248, df2: 1, idf: 8.546089, rIDF: 0.009597, idf2: 15.506091, rIDF2: 6.969599, burstiness: 1.008032, adapt2: 0.008032, adapt3: 1.000000
droit,	 tf: 598, df1: 592, df2: 3, idf: 7.294202, rIDF: 0.009884, idf2: 14.506091, rIDF2: 7.221772, burstiness: 1.010118, adapt2: 0.006745, adapt3: 0.750000
d'azur,	 tf: 452, df1: 444, df2: 4, idf: 7.708429, rIDF: 0.022196, idf2: 14.184162, rIDF2: 6.497930, burstiness: 1.017978, adapt2: 0.011236, adapt3: 0.600000
library's,	 tf: 257, df1: 252, df2: 3, idf: 8.523097, rIDF: 0.026235, idf2: 14.506091, rIDF2: 6.009228, burstiness: 1.019763, adapt2: 0.015810, adapt3: 0.500000
category:world,	 tf: 556, df1: 544, df2: 11, idf: 7.415978, rIDF: 0.027106, idf2: 12.921128, rIDF2: 5.532256, burstiness: 1.022018, adapt2: 0.022018, adapt3: 0.166667
observances,	 tf: 303, df1: 296, df2: 6, idf: 8.291771, rIDF: 0.031253, idf2: 13.698736, rIDF2: 5.438217, burstiness: 1.023569, adapt2: 0.023569, adapt3: 0.285714
category:athletes,	 tf: 851, df1: 828, df2: 20, idf: 6.810862, rIDF: 0.032883, idf2: 12.113773, rIDF2: 5.335794, burstiness: 1.027744, adapt2: 0.025332, adapt3: 0.190476
wingers,	 tf: 118, df1: 115, df2: 2, idf: 9.648110, rIDF: 0.035915, idf2: 14.921128, rIDF2: 5.308933, burstiness: 1.025862, adapt2: 0.025862, adapt3: 0.666667
category:animated,	 tf: 189, df1: 184, df2: 4, idf: 8.974709, rIDF: 0.037002, idf2: 14.184162, rIDF2: 5.246455, burstiness: 1.027027, adapt2: 0.027027, adapt3: 0.400000
stipulations,	 tf: 71, df1: 69, df2: 1, idf: 10.376808, rIDF: 0.040084, idf2: 15.506091, rIDF2: 5.169367, burstiness: 1.028571, adapt2: 0.028571, adapt3: 1.000000
situated,	 tf: 276, df1: 268, df2: 7, idf: 8.434628, rIDF: 0.040134, idf2: 13.506091, rIDF2: 5.111596, burstiness: 1.029740, adapt2: 0.029740, adapt3: 0.250000
screenwriters,	 tf: 238, df1: 231, df2: 6, idf: 8.648110, rIDF: 0.041034, idf2: 13.698736, rIDF2: 5.091660, burstiness: 1.030172, adapt2: 0.030172, adapt3: 0.285714
essentially,	 tf: 137, df1: 133, df2: 3, idf: 9.440001, rIDF: 0.041366, idf2: 14.506091, rIDF2: 5.107455, burstiness: 1.029851, adapt2: 0.029851, adapt3: 0.500000
humorous,	 tf: 98, df1: 95, df2: 2, idf: 9.921128, rIDF: 0.043627, idf2: 14.921128, rIDF2: 5.043627, burstiness: 1.031250, adapt2: 0.031250, adapt3: 0.666667
----------Top 20 rIDF in 10 <= log(tf) < 15-----------
ret,	 tf: 11634, df1: 90, df2: 77, idf: 9.998296, rIDF: 6.909154, idf2: 10.220688, rIDF2: 7.131546, burstiness: 127.857143, adapt2: 0.857143, adapt3: 0.974359
rgb,	 tf: 2453, df1: 90, df2: 79, idf: 9.998296, rIDF: 4.734148, idf2: 10.184162, rIDF2: 4.920014, burstiness: 26.967033, adapt2: 0.879121, adapt3: 0.962500
hex,	 tf: 2466, df1: 106, df2: 84, idf: 9.764624, rIDF: 4.507997, idf2: 10.096700, rIDF2: 4.840073, burstiness: 23.056075, adapt2: 0.794393, adapt3: 0.964706
align,	 tf: 1425, df1: 81, df2: 23, idf: 10.148539, rIDF: 4.109169, idf2: 11.921128, rIDF2: 5.881758, burstiness: 17.390244, adapt2: 0.292683, adapt3: 0.625000
sq,	 tf: 1722, df1: 112, df2: 21, idf: 9.685912, rIDF: 3.917195, idf2: 12.046659, rIDF2: 6.277942, burstiness: 15.247788, adapt2: 0.194690, adapt3: 0.500000
km2,	 tf: 1921, df1: 173, df2: 35, idf: 9.063147, rIDF: 3.450579, idf2: 11.336166, rIDF2: 5.723597, burstiness: 11.045977, adapt2: 0.206897, adapt3: 0.416667
kw,	 tf: 1413, df1: 141, df2: 115, idf: 9.356343, rIDF: 3.304874, idf2: 9.648110, rIDF2: 3.596640, burstiness: 9.957746, adapt2: 0.816901, adapt3: 0.931034
hp,	 tf: 1503, df1: 194, df2: 132, idf: 8.898760, rIDF: 2.935618, idf2: 9.450808, rIDF2: 3.487666, burstiness: 7.712821, adapt2: 0.682051, adapt3: 0.879699
selena,	 tf: 1168, df1: 165, df2: 100, idf: 9.131051, rIDF: 2.806969, idf2: 9.847879, rIDF2: 3.523797, burstiness: 7.042169, adapt2: 0.608434, adapt3: 0.643564
est,	 tf: 1389, df1: 201, df2: 52, idf: 8.847879, rIDF: 2.771898, idf2: 10.778170, rIDF2: 4.702189, burstiness: 6.881188, adapt2: 0.262376, adapt3: 0.433962
hurricane,	 tf: 4269, df1: 616, df2: 413, idf: 7.236964, rIDF: 2.757927, idf2: 7.812604, rIDF2: 3.333566, burstiness: 6.920583, adapt2: 0.670989, adapt3: 0.785024
ferrari,	 tf: 1290, df1: 192, df2: 122, idf: 8.913634, rIDF: 2.731822, idf2: 9.563576, rIDF2: 3.381765, burstiness: 6.689119, adapt2: 0.637306, adapt3: 0.788618
prix,	 tf: 2789, df1: 432, df2: 235, idf: 7.747867, rIDF: 2.666257, idf2: 8.623448, rIDF2: 3.541837, burstiness: 6.443418, adapt2: 0.545035, adapt3: 0.762712
percy,	 tf: 1211, df1: 201, df2: 54, idf: 8.847879, rIDF: 2.575579, idf2: 10.724731, rIDF2: 4.452431, burstiness: 6.000000, adapt2: 0.272277, adapt3: 0.527273
boeing,	 tf: 1070, df1: 182, df2: 71, idf: 8.990391, rIDF: 2.540750, idf2: 10.336166, rIDF2: 3.886525, burstiness: 5.852459, adapt2: 0.393443, adapt3: 0.652778
canadiens,	 tf: 1266, df1: 221, df2: 174, idf: 8.711675, rIDF: 2.502977, idf2: 9.054879, rIDF2: 2.846181, burstiness: 5.707207, adapt2: 0.788288, adapt3: 0.691429
d,	 tf: 20371, df1: 3274, df2: 1274, idf: 4.828811, rIDF: 2.482011, idf2: 6.189809, rIDF2: 3.843009, burstiness: 6.220458, adapt2: 0.389313, adapt3: 0.639216
ny,	 tf: 1347, df1: 241, df2: 67, idf: 8.587227, rIDF: 2.467307, idf2: 10.418628, rIDF2: 4.298707, burstiness: 5.570248, adapt2: 0.280992, adapt3: 0.455882
ndash,	 tf: 5970, df1: 1046, df2: 232, idf: 6.474045, rIDF: 2.465682, idf2: 8.641904, rIDF2: 4.633541, burstiness: 5.702961, adapt2: 0.222541, adapt3: 0.708155
colspan,	 tf: 11781, df1: 2077, df2: 1676, idf: 5.485111, rIDF: 2.412966, idf2: 5.794424, rIDF2: 2.722279, burstiness: 5.669875, adapt2: 0.807026, adapt3: 0.794275
----------Bottom 20 rIDF in 10 <= log(tf) < 15-----------
websites,	 tf: 23026, df1: 22762, df2: 211, idf: 2.031688, rIDF: -0.158152, idf2: 8.778170, rIDF2: 6.588331, burstiness: 1.011598, adapt2: 0.009313, adapt3: 0.160377
births,	 tf: 20823, df1: 20769, df2: 27, idf: 2.163877, rIDF: -0.154638, idf2: 11.698736, rIDF2: 9.380221, burstiness: 1.002600, adapt2: 0.001348, adapt3: 0.250000
v2,	 tf: 1748, df1: 1743, df2: 4, idf: 5.737906, rIDF: -0.009404, idf2: 14.184162, rIDF2: 8.436853, burstiness: 1.002867, adapt2: 0.002867, adapt3: 0.400000
category:towns,	 tf: 1267, df1: 1265, df2: 1, idf: 6.200029, rIDF: -0.007539, idf2: 15.506091, rIDF2: 9.298523, burstiness: 1.001580, adapt2: 0.001580, adapt3: 1.000000
footballers,	 tf: 3180, df1: 3133, df2: 45, idf: 4.892301, rIDF: -0.003108, idf2: 10.982529, rIDF2: 6.087119, burstiness: 1.014997, adapt2: 0.014678, adapt3: 0.065217
establishments,	 tf: 1609, df1: 1598, df2: 9, idf: 5.863136, rIDF: -0.002569, idf2: 13.184162, rIDF2: 7.318457, burstiness: 1.006879, adapt2: 0.006254, adapt3: 0.300000
deaths,	 tf: 9092, df1: 8648, df2: 308, idf: 3.427773, rIDF: 0.002324, idf2: 8.234628, rIDF2: 4.809178, burstiness: 1.051335, adapt2: 0.035727, adapt3: 0.177994
commune,	 tf: 8301, df1: 7925, df2: 236, idf: 3.553713, rIDF: 0.003002, idf2: 8.617347, rIDF2: 5.066636, burstiness: 1.047439, adapt2: 0.029902, adapt3: 0.291139
pages,	 tf: 9452, df1: 8914, df2: 290, idf: 3.384072, rIDF: 0.011894, idf2: 8.321215, rIDF2: 4.949038, burstiness: 1.060348, adapt2: 0.032642, adapt3: 0.333333
département,	 tf: 1352, df1: 1304, df2: 27, idf: 6.156256, rIDF: 0.041639, idf2: 11.698736, rIDF2: 5.584118, burstiness: 1.036782, adapt2: 0.021456, adapt3: 0.250000
category:people,	 tf: 4574, df1: 4320, df2: 232, idf: 4.428941, rIDF: 0.047094, idf2: 8.641904, rIDF2: 4.260058, burstiness: 1.058783, adapt2: 0.053923, adapt3: 0.072961
pays,	 tf: 1124, df1: 1074, df2: 25, idf: 6.435970, rIDF: 0.056878, idf2: 11.805651, rIDF2: 5.426559, burstiness: 1.046512, adapt2: 0.024186, adapt3: 0.461538
category:japanese,	 tf: 1063, df1: 1015, df2: 44, idf: 6.517406, rIDF: 0.058359, idf2: 11.014237, rIDF2: 4.555191, burstiness: 1.047244, adapt2: 0.044291, adapt3: 0.111111
category:deaths,	 tf: 1212, df1: 1145, df2: 65, idf: 6.343699, rIDF: 0.072582, idf2: 10.461696, rIDF2: 4.190579, burstiness: 1.058464, adapt2: 0.057592, adapt3: 0.045455
id,	 tf: 2286, df1: 2137, df2: 75, idf: 5.444044, rIDF: 0.079506, idf2: 10.258163, rIDF2: 4.893625, burstiness: 1.069691, adapt2: 0.035547, adapt3: 0.328947
related,	 tf: 6880, df1: 6274, df2: 461, idf: 3.890691, rIDF: 0.080002, idf2: 7.654342, rIDF2: 3.843653, burstiness: 1.096574, adapt2: 0.073625, adapt3: 0.203463
category:actors,	 tf: 2619, df1: 2404, df2: 201, idf: 5.274269, rIDF: 0.103272, idf2: 8.847879, rIDF2: 3.676882, burstiness: 1.089397, adapt2: 0.083992, adapt3: 0.074257
simply,	 tf: 1363, df1: 1244, df2: 94, idf: 6.224161, rIDF: 0.121139, idf2: 9.936235, rIDF2: 3.833214, burstiness: 1.095582, adapt2: 0.076305, adapt3: 0.189474
widely,	 tf: 1097, df1: 998, df2: 87, idf: 6.541750, rIDF: 0.127820, idf2: 10.046659, rIDF2: 3.632729, burstiness: 1.099099, adapt2: 0.088088, adapt3: 0.136364
recently,	 tf: 1053, df1: 958, df2: 70, idf: 6.600704, rIDF: 0.128111, idf2: 10.356343, rIDF2: 3.883751, burstiness: 1.099062, adapt2: 0.074035, adapt3: 0.239437
----------Top 20 rIDF in 15 <= log(tf)-----------
0,	 tf: 135310, df1: 8255, df2: 6239, idf: 3.494863, rIDF: 3.110881, idf2: 3.898760, rIDF2: 3.514778, burstiness: 16.389414, adapt2: 0.755814, adapt3: 0.879487
nbsp,	 tf: 42091, df1: 4637, df2: 2679, idf: 4.326803, rIDF: 2.868021, idf2: 5.118073, rIDF2: 3.659291, burstiness: 9.075464, adapt2: 0.577835, adapt3: 0.652612
2,	 tf: 79196, df1: 14983, df2: 8534, idf: 2.634955, rIDF: 1.831490, idf2: 3.446915, rIDF2: 2.643449, burstiness: 5.285438, adapt2: 0.569608, adapt3: 0.743292
1,	 tf: 87647, df1: 16311, df2: 9565, idf: 2.512445, rIDF: 1.799412, idf2: 3.282391, rIDF2: 2.569358, burstiness: 5.373222, adapt2: 0.586439, adapt3: 0.675413
he,	 tf: 100193, df1: 21846, df2: 13046, idf: 2.090943, rIDF: 1.489760, idf2: 2.834660, rIDF2: 2.233477, burstiness: 4.586167, adapt2: 0.597199, adapt3: 0.734958
his,	 tf: 60233, df1: 15801, df2: 9113, idf: 2.558271, rIDF: 1.488731, idf2: 3.352222, rIDF2: 2.282682, burstiness: 3.811796, adapt2: 0.576762, adapt3: 0.663924
3,	 tf: 48827, df1: 13627, df2: 7171, idf: 2.771804, rIDF: 1.479212, idf2: 3.697931, rIDF2: 2.405338, burstiness: 3.582918, adapt2: 0.526269, adapt3: 0.697016
4,	 tf: 38957, df1: 11730, df2: 6038, idf: 2.988052, rIDF: 1.440175, idf2: 3.945997, rIDF2: 2.398120, burstiness: 3.320945, adapt2: 0.514790, adapt3: 0.673456
american,	 tf: 33816, df1: 12611, df2: 3891, idf: 2.883581, rIDF: 1.168788, idf2: 4.579795, rIDF2: 2.865001, burstiness: 2.681335, adapt2: 0.308595, adapt3: 0.521326
they,	 tf: 59087, df1: 19862, df2: 10715, idf: 2.228295, rIDF: 1.138981, idf2: 3.118612, rIDF2: 2.029298, burstiness: 2.974777, adapt2: 0.539496, adapt3: 0.616928
were,	 tf: 43546, df1: 16395, df2: 7711, idf: 2.505034, rIDF: 1.084864, idf2: 3.593201, rIDF2: 2.173031, burstiness: 2.655953, adapt2: 0.470359, adapt3: 0.600104
are,	 tf: 95331, df1: 28296, df2: 16398, idf: 1.717729, rIDF: 1.075986, idf2: 2.504770, rIDF2: 1.863027, burstiness: 3.368979, adapt2: 0.579531, adapt3: 0.654064
that,	 tf: 94504, df1: 29076, df2: 15158, idf: 1.678500, rIDF: 1.029525, idf2: 2.618204, rIDF2: 1.969229, burstiness: 3.250163, adapt2: 0.521340, adapt3: 0.634541
new,	 tf: 37169, df1: 15110, df2: 7216, idf: 2.622779, rIDF: 1.020037, idf2: 3.688907, rIDF2: 2.086165, burstiness: 2.459797, adapt2: 0.477599, adapt3: 0.553831
can,	 tf: 34063, df1: 14192, df2: 6481, idf: 2.713199, rIDF: 1.007106, idf2: 3.843867, rIDF2: 2.137775, burstiness: 2.400056, adapt2: 0.456704, adapt3: 0.570657
not,	 tf: 45014, df1: 17959, df2: 8439, idf: 2.373591, rIDF: 0.990774, idf2: 3.463063, rIDF2: 2.080247, burstiness: 2.506403, adapt2: 0.469933, adapt3: 0.575948
was,	 tf: 168517, df1: 40309, df2: 26359, idf: 1.207240, rIDF: 0.949576, idf2: 1.820028, rIDF2: 1.562363, burstiness: 4.180551, adapt2: 0.653932, adapt3: 0.695941
or,	 tf: 65713, df1: 24648, df2: 12305, idf: 1.916849, rIDF: 0.935213, idf2: 2.919016, rIDF2: 1.937380, burstiness: 2.665991, adapt2: 0.499249, adapt3: 0.595726
be,	 tf: 51097, df1: 20837, df2: 9795, idf: 2.159161, rIDF: 0.916100, idf2: 3.248114, rIDF2: 2.005052, burstiness: 2.452155, adapt2: 0.470103, adapt3: 0.574112
with,	 tf: 87662, df1: 30551, df2: 15811, idf: 1.607111, rIDF: 0.894228, idf2: 2.557358, rIDF2: 1.844475, burstiness: 2.869305, adapt2: 0.517544, adapt3: 0.605995
----------Bottom 20 rIDF in 15 <= log(tf)-----------
references,	 tf: 36801, df1: 36529, df2: 233, idf: 1.349296, rIDF: -0.265136, idf2: 8.635726, rIDF2: 7.021293, burstiness: 1.007446, adapt2: 0.006406, adapt3: 0.102564
is,	 tf: 298318, df1: 81891, df2: 53176, idf: 0.184656, rIDF: 0.124933, idf2: 0.807576, rIDF2: 0.747853, burstiness: 3.642834, adapt2: 0.649355, adapt3: 0.596705
a,	 tf: 384787, df1: 82578, df2: 47854, idf: 0.172603, rIDF: 0.149311, idf2: 0.959709, rIDF2: 0.936416, burstiness: 4.659635, adapt2: 0.579506, adapt3: 0.737582
the,	 tf: 1128191, df1: 83076, df2: 72026, idf: 0.163929, rIDF: 0.163921, idf2: 0.369840, rIDF2: 0.369833, burstiness: 13.580076, adapt2: 0.866991, adapt3: 0.864176
category,	 tf: 38902, df1: 27878, df2: 8766, idf: 1.739199, rIDF: 0.189681, idf2: 3.408223, rIDF2: 1.858705, burstiness: 1.395423, adapt2: 0.314466, adapt3: 0.133683
in,	 tf: 473962, df1: 78589, df2: 64543, idf: 0.244032, rIDF: 0.235142, idf2: 0.528095, rIDF2: 0.519204, burstiness: 6.030831, adapt2: 0.821275, adapt3: 0.760923
of,	 tf: 592485, df1: 76898, df2: 57757, idf: 0.275413, rIDF: 0.272931, idf2: 0.688357, rIDF2: 0.685875, burstiness: 7.704730, adapt2: 0.751089, adapt3: 0.794141
other,	 tf: 59251, df1: 35826, df2: 11040, idf: 1.377331, rIDF: 0.290879, idf2: 3.075507, rIDF2: 1.989055, burstiness: 1.653836, adapt2: 0.308175, adapt3: 0.428041
people,	 tf: 57103, df1: 31593, df2: 8974, idf: 1.558728, rIDF: 0.433928, idf2: 3.374394, rIDF2: 2.249594, burstiness: 1.807432, adapt2: 0.284073, adapt3: 0.490474
an,	 tf: 63587, df1: 32418, df2: 12310, idf: 1.521539, rIDF: 0.507041, idf2: 2.918430, rIDF2: 1.903933, burstiness: 1.961442, adapt2: 0.379746, adapt3: 0.499553
and,	 tf: 426685, df1: 63041, df2: 47650, idf: 0.562065, rIDF: 0.547259, idf2: 0.965872, rIDF2: 0.951066, burstiness: 6.768281, adapt2: 0.755861, adapt3: 0.774485
also,	 tf: 48288, df1: 25108, df2: 9648, idf: 1.890174, rIDF: 0.585383, idf2: 3.269927, rIDF2: 1.965136, burstiness: 1.923175, adapt2: 0.384285, adapt3: 0.477252
has,	 tf: 46705, df1: 24368, df2: 8971, idf: 1.933331, rIDF: 0.591683, idf2: 3.374877, rIDF2: 2.033229, burstiness: 1.916615, adapt2: 0.368173, adapt3: 0.493201
it,	 tf: 132039, df1: 46454, df2: 23985, idf: 1.002544, rIDF: 0.602740, idf2: 1.956186, rIDF2: 1.556381, burstiness: 2.842321, adapt2: 0.516328, adapt3: 0.625573
from,	 tf: 98566, df1: 39653, df2: 19607, idf: 1.230912, rIDF: 0.616517, idf2: 2.246936, rIDF2: 1.632541, burstiness: 2.485676, adapt2: 0.494477, adapt3: 0.563596
one,	 tf: 42195, df1: 20919, df2: 8237, idf: 2.153495, rIDF: 0.697528, idf2: 3.498012, rIDF2: 2.042044, burstiness: 2.017017, adapt2: 0.393786, adapt3: 0.498422
which,	 tf: 43108, df1: 21263, df2: 8499, idf: 2.129965, rIDF: 0.698343, idf2: 3.452843, rIDF2: 2.021221, burstiness: 2.027323, adapt2: 0.399737, adapt3: 0.509294
for,	 tf: 126499, df1: 41345, df2: 21539, idf: 1.170630, rIDF: 0.742291, idf2: 2.111360, rIDF2: 1.683021, burstiness: 3.059546, adapt2: 0.520969, adapt3: 0.631244
first,	 tf: 40450, df1: 19112, df2: 7921, idf: 2.283824, rIDF: 0.779452, idf2: 3.554442, rIDF2: 2.050070, burstiness: 2.116413, adapt2: 0.414482, adapt3: 0.520576
by,	 tf: 104158, df1: 36294, df2: 19613, idf: 1.358607, rIDF: 0.788199, idf2: 2.246494, rIDF2: 1.676086, burstiness: 2.869789, adapt2: 0.540405, adapt3: 0.586928
proper names
jedi,	 tf: 138, df1: 60, df2: 23, idf: 10.575353, rIDF: 1.187127, idf2: 11.921128, rIDF2: 2.532901, burstiness: 2.278689, adapt2: 0.393443, adapt3: 0.625000
chicago,	 tf: 4322, df1: 1738, df2: 843, idf: 5.742048, rIDF: 1.280400, idf2: 6.784991, rIDF2: 2.323343, burstiness: 2.485911, adapt2: 0.485336, adapt3: 0.562796
stanford,	 tf: 372, df1: 263, df2: 61, idf: 8.461696, rIDF: 0.495748, idf2: 10.551894, rIDF2: 2.585946, burstiness: 1.412879, adapt2: 0.234848, adapt3: 0.274194
potential content words
atom,	 tf: 707, df1: 323, df2: 142, idf: 8.166241, rIDF: 1.122272, idf2: 9.346219, rIDF2: 2.302251, burstiness: 2.185185, adapt2: 0.441358, adapt3: 0.489510
statistics,	 tf: 8198, df1: 5615, df2: 2450, idf: 4.050763, rIDF: 0.482827, idf2: 5.246936, rIDF2: 1.679000, burstiness: 1.459936, adapt2: 0.436432, adapt3: 0.025704
biofuel,	 tf: 30, df1: 11, df2: 4, idf: 12.921128, rIDF: 1.368994, idf2: 14.184162, rIDF2: 2.632028, burstiness: 2.583333, adapt2: 0.416667, adapt3: 0.600000
common words
happy,	 tf: 1185, df1: 841, df2: 192, idf: 6.788414, rIDF: 0.485030, idf2: 8.913634, rIDF2: 2.610249, burstiness: 1.408551, adapt2: 0.229216, adapt3: 0.321244
beginning,	 tf: 2158, df1: 1811, df2: 246, idf: 5.682723, rIDF: 0.236080, idf2: 8.557723, rIDF2: 3.111080, burstiness: 1.191501, adapt2: 0.136313, adapt3: 0.251012
confusing,	 tf: 77, df1: 75, df2: 2, idf: 10.258163, rIDF: 0.036870, idf2: 14.921128, rIDF2: 4.699835, burstiness: 1.026316, adapt2: 0.039474, adapt3: 0.333333
function words
at,	 tf: 67922, df1: 26669, df2: 12840, idf: 1.803160, rIDF: 0.854135, idf2: 2.857621, rIDF2: 1.908595, burstiness: 2.546794, adapt2: 0.481477, adapt3: 0.590686
is,	 tf: 298318, df1: 81891, df2: 53176, idf: 0.184656, rIDF: 0.124933, idf2: 0.807576, rIDF2: 0.747853, burstiness: 3.642834, adapt2: 0.649355, adapt3: 0.596705
from,	 tf: 98566, df1: 39653, df2: 19607, idf: 1.230912, rIDF: 0.616517, idf2: 2.246936, rIDF2: 1.632541, burstiness: 2.485676, adapt2: 0.494477, adapt3: 0.563596
